{
  "cool": "it´s verry cold!",
  "dialog-back-button-title": "back",
  "dialog-close-button-title": "close",
  "dialog-alert-positive-button-text": "OK",
  "dialog-confirm-negative-button-text": "Cancel",
  "dialog-confirm-positive-button-text": "OK",
  "200": "OK"
}
